{
  "docs": [
    
    {
      "totalReviews": 0,
      "_id": "6559da61c550b761f4be1050",
      "name": "Lotfit Hood Premium",
      "type": {
        "_id": "65264c79920cb632bbc81ff6",
        "name": "Grocery",
        "banners": [
          
        ],
        "promotional_sliders": [
          
        ],
        "createdAt": "2023-10-11T07:19:21.744Z",
        "updatedAt": "2023-10-11T07:19:21.744Z",
        "slug": "grocery",
        "__v": 0
      },
      "product_type": "simple",
      "categories": [
       
      ],
      "tags": [
        
      ],
      "variations": [
        
      ],
      "variation_options": [
        
      ],
      "shop": {
        "_id": "65103f0e84e58607770dd110",
        "owner": "6505d03861754294a1501aee",
        "is_active": true,
        "orders_count": 0,
        "products_count": 9,
        "balance": {
          "total_earnings": 0,
          "withdrawn_amount": 0,
          "current_balance": 0,
          "payment_info": {
            "account": "378",
            "name": "Hedwig Soto",
            "email": "smtrstar@gmail.com",
            "bank": "Islamic Bank",
            "_id": "65104c376be9cd9fd024b3d9"
          },
          "_id": "65104c376be9cd9fd024b3d8",
          "admin_commission_rate": 10
        },
        "name": "LotFit",
        "description": "this is smart shop",
        "cover_image": {
          "img_url": "https://res.cloudinary.com/smtanimur/image/upload/v1695563443/jazila/hdxidoljidutni0cljzg.jpg",
          "img_id": "jazila/hdxidoljidutni0cljzg"
        },
        "logo": {
          "img_url": "https://res.cloudinary.com/smtanimur/image/upload/v1695563427/jazila/ftjawiqrosw7bkvmnk3i.jpg",
          "img_id": "jazila/ftjawiqrosw7bkvmnk3i"
        },
        "address": {
          "street_address": "daolatpur,monohardi",
          "country": "Bangladesh",
          "city": "Dhaka",
          "state": "Laudantium optio f",
          "zip": "112233",
          "_id": "65104c376be9cd9fd024b3d7"
        },
        "settings": {
          "contact": "01648138404",
          "website": "https://www.haqywin.wss",
          "_id": "65104c376be9cd9fd024b3d6"
        },
        "createdAt": "2023-09-24T13:52:14.423Z",
        "updatedAt": "2023-11-29T04:55:11.276Z",
        "slug": "lot-fit",
        "__v": 0
      },
      "description": "Our gourmet organic cabbage is carefully cultivated to ensure the highest quality and freshness for our customers. Packed with essential vitamins and minerals, our organic cabbage offers a healthy addition to any diet.",
      "in_stock": true,
      "is_taxable": true,
      "sale_price": 18,
      "ratings": 0,
      "sku": "FRUIT00",
      "gallery": [
        {
          "img_url": "https://res.cloudinary.com/smtanimur/image/upload/v1700387489/jazila/ekxeru2rhfi0byu94crl.jpg",
          "img_id": "jazila/ekxeru2rhfi0byu94crl"
        },
        {
          "img_url": "https://res.cloudinary.com/smtanimur/image/upload/v1700387494/jazila/cigbrwlueg95dmztebun.jpg",
          "img_id": "jazila/cigbrwlueg95dmztebun"
        },
        {
          "img_url": "https://res.cloudinary.com/smtanimur/image/upload/v1700387488/jazila/jjwmg3dogxf2oxpuvvgn.jpg",
          "img_id": "jazila/jjwmg3dogxf2oxpuvvgn"
        }
      ],
      "image": {
        "img_url": "https://res.cloudinary.com/dk42l62mv/image/upload/v1762541668/5_m9h3dv.jpg",
        "img_id": "jazila/mnjed6faqbh7tpqr2dja"
      },
      "status": {
  "publish" : "publish",
  "draft" : "draft"
},
      "height": "",
      "length": "",
      "width": "",
      "price": 5,
      "quantity": 22,
      "unit": "1 KG",
      "rating_count": [
        
      ],
      "createdAt": "2023-11-19T09:50:25.484Z",
      "updatedAt": "2023-11-19T09:50:25.484Z",
      "slug": "gourmet-organic-cabbage",
      "__v": 0
    }
  ],
  "totalDocs": 13,
  "limit": 12,
  "totalPages": 2,
  "page": 1,
  "pagingCounter": 1,
  "hasPrevPage": false,
  "hasNextPage": true,
  "prevPage": null,
  "nextPage": 2
}